%YAML 1.1
%TAG !u! tag:unity3d.com,2011:
--- !u!114 &11400000
MonoBehaviour:
  m_ObjectHideFlags: 0
  m_CorrespondingSourceObject: {fileID: 0}
  m_PrefabInstance: {fileID: 0}
  m_PrefabAsset: {fileID: 0}
  m_GameObject: {fileID: 0}
  m_Enabled: 1
  m_EditorHideFlags: 0
  m_Script: {fileID: 11500000, guid: 9ce0a6033189dda44838db8a8ea47c6a, type: 3}
  m_Name: Levels Progression
  m_EditorClassIdentifier: 
  levelPrefabs:
  - {fileID: 3448786814197089038, guid: c42505a695a529448b9d863784ffdd8b, type: 3}
  - {fileID: 3448786814197089038, guid: c42505a695a529448b9d863784ffdd8b, type: 3}
  lastLevel: 0
